defun mul(a,b)
{

onetwoeight := 128{8};
ninetynine := 99{8};
twentyseven := 27{8};
zero := 0{8};


mul_a := a;
mul_b := b;

mul_o := zero;

if mul_b{0} == 1{1} then
    mul_o := mul_a;
end

for mul_i from 1 to 7
begin
    mul_d := mul_a{7};// & onetwoeight;
    mul_a := mul_a << 1;// + mul_a;

    if mul_d == 1{1} then //onetwoeight then
        mul_a := mul_a ^ twentyseven;
    end

    if mul_b{mul_i} == 1{1} then
        mul_o := mul_o ^ mul_a;
    end
end

//c := mul_o;
return mul_o;
}



defun sbox(x)
{
q := 0{4};

q{3} := (x{7} & (x{5} ^ x{4} ^ x{1} ^ x{0})) ^
        (x{6} & (x{5} ^ x{4} ^ x{2} ^ x{1})) ^
        (x{5} & (x{4} ^ x{2} ^ x{1} ^ x{0})) ^
        (x{4} & (x{2} ^ x{1})) ^
        (x{3} & (x{2} ^ x{1})) ^
        (x{2} & (x{1}));
q{2} := (x{7} & (x{6} ^ x{5} ^ x{3} ^ x{2} ^ x{0})) ^
        (x{6} & (x{5} ^ x{3} ^ x{2} ^ x{1} ^ x{0})) ^
        (x{5} & (x{3} ^ x{2})) ^
        (x{4} & (x{3} ^ x{2} ^ x{0})) ^
        (x{3} & (x{2} ^ x{0})) ^
        ((x{2} ^ x{1}) & x{0});
q{1} := (x{7} & (x{5} ^ x{2} ^ x{0} ^ 1{1})) ^
        (x{6} & (x{5} ^ x{3})) ^
        (x{5} & (x{4} ^ x{3} ^ x{2} ^ x{0} ^ 1{1})) ^
        (x{4} & (x{2} ^ 1{1})) ^
        (x{3} & (x{2} ^ x{0})) ^
        (x{2} & (x{1} ^ x{0} ^ 1{1})) ^
        (x{1});
q{0} := (x{7} & (x{6} ^ x{4} ^ x{0})) ^
        (x{6} & (x{5} ^ x{4} ^ x{3} ^ x{1} ^ 1{1})) ^
        (x{5} & (x{3} ^ x{0} ^ 1{1})) ^
        (x{4} & (x{3} ^ x{1})) ^
        (x{3} & (x{2} ^ x{1} ^ x{0} ^ 1{1})) ^
        ((x{2} ^ x{1}) & x{0}) ^
        (x{0} ^ x{2});

//q := q[3].q[2].q[1].q[0];
//q := q[0].q[1].q[2].q[3];

y := 0{4};

// y := 1/q
y{3} := q{3} ^ (q{3}&q{2}&q{1}) ^ (q{3}&q{0}) ^ q{2};
y{2} := (q{3}&q{2}&q{1}) ^ (q{3}&q{2}&q{0}) ^ (q{3}&q{0}) ^ 
        q{2} ^ (q{2}&q{1});
y{1} := q{3} ^ (q{3}&q{2}&q{1}) ^ (q{3}&q{1}&q{0}) ^ q{2} ^ 
        (q{2}&q{0}) ^ q{1};
y{0} := (q{3}&q{2}&q{1}) ^ (q{3}&q{2}&q{0}) ^ (q{3}&q{1}) ^ 
        (q{3}&q{1}&q{0}) ^ (q{3}&q{0}) ^ q{2} ^ (q{2}&q{1}) ^ 
        (q{2}&q{1}&q{0}) ^ q{1} ^ q{0};

//y := y[3].y[2].y[1].y[0];
//y := y[0].y[1].y[2].y[3];

t := 0{8};

t{7} := (y{3} & (x{7} ^ x{6} ^ x{4} ^ x{0})) ^
        (y{2} & (x{5} ^ x{4} ^ x{3} ^ x{0})) ^
        (y{1} & (x{5} ^ x{4} ^ x{3} ^ x{2} ^ x{1})) ^
        (y{0} & (x{7} ^ x{2} ^ x{1}));
t{6} := (y{3} & (x{7} ^ x{6} ^ x{4})) ^
        (y{2} & (x{7} ^ x{5} ^ x{1})) ^
        (y{1} & (x{6} ^ x{5} ^ x{4})) ^
        (y{0} & (x{6} ^ x{5} ^ x{4} ^ x{3} ^ x{2}));	   
t{5} := (y{3} & (x{7} ^ x{6} ^ x{5} ^ x{2})) ^
        (y{2} & (x{7} ^ x{5} ^ x{0})) ^
        (y{1} & (x{4} ^ x{3})) ^
        (y{0} & (x{7} ^ x{6} ^ x{5}));	   
t{4} := (y{3} & (x{6} ^ x{5} ^ x{2})) ^
        (y{2} & (x{7} ^ x{6} ^ x{5} ^ x{3} ^ x{2})) ^
        (y{1} & (x{5} ^ x{4} ^ x{3} ^ x{2} ^ x{1} ^ x{0})) ^
        (y{0} & (x{4} ^ x{3} ^ x{2} ^ x{0}));
t{3} := (y{3} & (x{7} ^ x{6} ^ x{5} ^ x{4} ^ x{3} ^ x{2} ^ x{1})) ^
        (y{2} & (x{7} ^ x{6} ^ x{5} ^ x{3} ^ x{2} ^ x{0})) ^
        (y{1} & (x{7} ^ x{3} ^ x{1} ^ x{0})) ^
        (y{0} & (x{6} ^ x{4} ^ x{1} ^ x{0}));
t{2} := (y{3} & (x{5} ^ x{2} ^ x{1} ^ x{0})) ^
        (y{2} & (x{7} ^ x{6} ^ x{5} ^ x{4} ^ x{3} ^ x{2} ^ x{0})) ^
        (y{1} & (x{7} ^ x{5} ^ x{4})) ^
        (y{0} & (x{4} ^ x{2} ^ x{1} ^ x{0}));
t{1} := (y{3} & (x{6} ^ x{4} ^ x{3} ^ x{1})) ^
        (y{2} & (x{6} ^ x{5} ^ x{3} ^ x{1})) ^
        (y{1} & (x{7})) ^
        (y{0} & (x{6} ^ x{3} ^ x{2} ^ x{0}));
t{0} := (y{3} & (x{7} ^ x{3} ^ x{2} ^ x{1})) ^
        (y{2} & (x{7} ^ x{4} ^ x{0})) ^
        (y{1} & (x{6} ^ x{4} ^ x{2} ^ x{0})) ^
        (y{0} & (x{5} ^ x{3} ^ x{2} ^ x{0}));

//t:=t[7].t[6].t[5].t[4].t[3].t[2].t[1].t[0];
//t:=t[0].t[1].t[2].t[3].t[4].t[5].t[6].t[7];
ninetynine := 99{8};
t := t ^ ninetynine;

return t;
}



defun sub_bytes(s)
{
ret := 0{128};
array(ret,8);

for sub_i from 0 to 14
begin
    aaaa := s[sub_i];
    ret[sub_i] := sbox(aaaa);
end

aaaa := s[15];
ret[15] := sbox(aaaa);

return ret;
}



defun shift_rows(s)
{
//
// $1 := SHIFT_ROWS($2);
//
ret:=0{128};

//array(s,8);
array(ret,8);

ret[ 0] := s[ 0]; //$2[ 0]; // 1st row no change
ret[ 4] := s[ 4];
ret[ 8] := s[ 8];
ret[12] := s[12];

ret[ 1] := s[ 5]; // 2nd row shift 1
ret[ 5] := s[ 9];
ret[ 9] := s[13];
ret[13] := s[ 1];

ret[ 2] := s[10]; // 3rd row shift 2
ret[ 6] := s[14];
ret[10] := s[ 2];
ret[14] := s[ 6];

ret[ 3] := s[15]; // 4th row shift 3
ret[ 7] := s[ 3];
ret[11] := s[ 7];
ret[15] := s[11];


return ret;
}



defun mix_columns(s)
{
ret:=0{128};
mix_b:=0{128};
array(mix_b,8);
two := 2{8};

for mix_i from 0 to 15
begin
    aaaa := s[mix_i];
    aaaa := mul(two, aaaa);
    mix_b[mix_i] := aaaa;
end

array(ret,8);

ret[ 0] := mix_b[ 0] ^ s[ 3] ^ s[ 2] ^ mix_b[ 1] ^ s[ 1];
ret[ 1] := mix_b[ 1] ^ s[ 0] ^ s[ 3] ^ mix_b[ 2] ^ s[ 2];
ret[ 2] := mix_b[ 2] ^ s[ 1] ^ s[ 0] ^ mix_b[ 3] ^ s[ 3];
ret[ 3] := mix_b[ 3] ^ s[ 2] ^ s[ 1] ^ mix_b[ 0] ^ s[ 0];

ret[ 4] := mix_b[ 4] ^ s[ 7] ^ s[ 6] ^ mix_b[ 5] ^ s[ 5];
ret[ 5] := mix_b[ 5] ^ s[ 4] ^ s[ 7] ^ mix_b[ 6] ^ s[ 6];
ret[ 6] := mix_b[ 6] ^ s[ 5] ^ s[ 4] ^ mix_b[ 7] ^ s[ 7];
ret[ 7] := mix_b[ 7] ^ s[ 6] ^ s[ 5] ^ mix_b[ 4] ^ s[ 4];

ret[ 8] := mix_b[ 8] ^ s[11] ^ s[10] ^ mix_b[ 9] ^ s[ 9];
ret[ 9] := mix_b[ 9] ^ s[ 8] ^ s[11] ^ mix_b[10] ^ s[10];
ret[10] := mix_b[10] ^ s[ 9] ^ s[ 8] ^ mix_b[11] ^ s[11];
ret[11] := mix_b[11] ^ s[10] ^ s[ 9] ^ mix_b[ 8] ^ s[ 8];

ret[12] := mix_b[12] ^ s[15] ^ s[14] ^ mix_b[13] ^ s[13];
ret[13] := mix_b[13] ^ s[12] ^ s[15] ^ mix_b[14] ^ s[14];
ret[14] := mix_b[14] ^ s[13] ^ s[12] ^ mix_b[15] ^ s[15];
ret[15] := mix_b[15] ^ s[14] ^ s[13] ^ mix_b[12] ^ s[12];

return ret;
}



defun round_keys(rc, pk)
{
//    function block roundKey(byte rcon, block prevKey)
//    {
//        roundKey[ 0] = prevKey[ 0] ^ Sbox(prevKey[13]) ^ rcon;
//        roundKey[ 1] = prevKey[ 1] ^ Sbox(prevKey[14]);
//        roundKey[ 2] = prevKey[ 2] ^ Sbox(prevKey[15]);
//        roundKey[ 3] = prevKey[ 3] ^ Sbox(prevKey[12]);
ret:=0{128};
array(ret,8);

aaaa := pk[13];
ret[0] := sbox(aaaa); ret[0] := pk[0] ^ ret[0] ^ rc;
aaaa := pk[14];
ret[1] := sbox(aaaa); ret[1] := pk[1] ^ ret[1];
aaaa := pk[15];
ret[2] := sbox(aaaa); ret[2] := pk[2] ^ ret[2];
aaaa := pk[12];
ret[3] := sbox(aaaa); ret[3] := pk[3] ^ ret[3];

//        roundKey[ 4] = prevKey[ 4] ^ roundKey[ 0];
//        roundKey[ 5] = prevKey[ 5] ^ roundKey[ 1];
//        roundKey[ 6] = prevKey[ 6] ^ roundKey[ 2];
//        roundKey[ 7] = prevKey[ 7] ^ roundKey[ 3];
//        roundKey[ 8] = prevKey[ 8] ^ roundKey[ 4];
//        roundKey[ 9] = prevKey[ 9] ^ roundKey[ 5];
//        roundKey[10] = prevKey[10] ^ roundKey[ 6];
//        roundKey[11] = prevKey[11] ^ roundKey[ 7];
//        roundKey[12] = prevKey[12] ^ roundKey[ 8];
//        roundKey[13] = prevKey[13] ^ roundKey[ 9];
//        roundKey[14] = prevKey[14] ^ roundKey[10];
//        roundKey[15] = prevKey[15] ^ roundKey[11];
ret[ 4] := pk[ 4] ^ ret[ 0];
ret[ 5] := pk[ 5] ^ ret[ 1];
ret[ 6] := pk[ 6] ^ ret[ 2];
ret[ 7] := pk[ 7] ^ ret[ 3];
ret[ 8] := pk[ 8] ^ ret[ 4];
ret[ 9] := pk[ 9] ^ ret[ 5];
ret[10] := pk[10] ^ ret[ 6];
ret[11] := pk[11] ^ ret[ 7];
ret[12] := pk[12] ^ ret[ 8];
ret[13] := pk[13] ^ ret[ 9];
ret[14] := pk[14] ^ ret[10];
ret[15] := pk[15] ^ ret[11];
return ret;
}


//
// Aes circuit
//

defun aes(intxt,inkey)
{

key := inkey{0:127};
txt := intxt{0:127};


//mask := txt{128:127};

//txt := txt{0:127};

two := 2{8};
onetwoeight := 128{8};
ninetynine := 99{8};
twentyseven := 27{8};

zero := 0{8};
two := 2{8};



key_vec := key;
txt_vec := txt;
array(key_vec,8);
array(txt_vec,8);

rcon := 141{8};


txt_vec_sub:=0{128};
array(txt_vec_sub,8);

txt_vec_xor:=0{128};
array(txt_vec_xor,8);

txt_vec_shft:=0{128};
array(txt_vec_shft,8);

old_key_vec := 0{128};
array(old_key_vec,8);

for aes_i from 0 to 8
begin

    txt_vec_xor := txt_vec ^ key_vec;

    txt_vec_sub := sub_bytes(txt_vec_xor);

    txt_vec_shft := shift_rows(txt_vec_sub);

    txt_vec := mix_columns(txt_vec_shft);
    
    // key scheduling
    rcon := mul(two, rcon);
    
    key_vec := round_keys(rcon, key_vec);
end


txt_vec_xor := txt_vec ^ key_vec;
txt_vec_sub := sub_bytes(txt_vec_xor);
txt_vec_shft := shift_rows(txt_vec_sub);

rcon := mul(two, rcon);

key_vec := round_keys(rcon, key_vec);

out_vec:=0{128};
array(out_vec,8);



//nout := 1{128};
//output.0 := 1{128};
//if key < txt then 
	nout := 0{128};
//end

array(nout,8);

out_vec := txt_vec_shft{0:127} ^ key_vec{0:127} ^ nout{0:127} ;

return out_vec;
}
define(aesoutsize,128)




//
// Mil circuit
//

define(size, 256)
define(entrysize, 32)
define(keysize, 32)
define(oph, eval( keysize*size + entrysize*size+1 )  )

defvar alicein := input.1{eval(keysize +aesoutsize+aesoutsize+aesoutsize+entrysize )};
defvar bobin := input.0{eval(     1 )};
defvar partialin := input.2{eval(keysize*size + entrysize*size+1  )};




keys := partialin{0:eval(keysize*size -1)};
entries := partialin{eval(keysize*size):eval(entrysize*size-1)};

out_alice := 0{eval(entrysize+1+aesoutsize+aesoutsize )};
//out_bob := 0{eval(entrysize+aesoutsize+aesoutsize )};


out_partial :=0{ eval(keysize*size + entrysize*size +1 ) };


for i from 0 to decr(eval(size*32)) step 32
begin
	if alicein{0:eval(keysize-1)} == keys{i:eval(keysize-1)}
	then
		out_alice{0:eval(entrysize-1)} := entries{i:eval(entrysize-1)};
	end

end




aesbuf:= 0{128};




aesbuf:= alicein{keysize:eval(aesoutsize-1)};
//aesbuf:= aesbuf ^ bobin{eval(0):127}; 

aesbuf{0:eval(entrysize-1)} := aesbuf{0:eval(entrysize-1)} ^ out_alice{0:eval(entrysize-1)};

//aesbuf{0} := aesbuf{0}^out_partial{ eval(keysize*size + entrysize*size) };

out_alice{entrysize:eval(aesoutsize-1)} :=  aesbuf;
out_alice{eval(entrysize + aesoutsize):eval(aesoutsize-1)} := aes(aesbuf,aesbuf);

out_alice{eval(entrysize+aesoutsize+aesoutsize)} := partialin{eval(keysize*size + entrysize*size)} ^0;




//out_partial := out_partial^partialin{size};

for i from 0 to eval(oph - 1) step 1
begin

	out_partial{i} := partialin{i}^0;
end



out_partial{ eval(keysize*size + entrysize*size) } := partialin{eval(keysize*size + entrysize*size)};






mask := 0{eval(entrysize+aesoutsize+aesoutsize+1)};


mask{0:eval(entrysize+aesoutsize+aesoutsize-1)} := alicein{eval(keysize+aesoutsize) :eval(entrysize+aesoutsize+aesoutsize-1  )}; //removed the -1 since alice also outs the check bit

mask{eval(entrysize+aesoutsize+aesoutsize) } := 0{1};


//maskbob := bobin{eval(0):eval(entrysize+aesoutsize+aesoutsize-1)};



longmaskalice := 0{eval( entrysize+aesoutsize+aesoutsize+1  )};
longmaskalice{0:eval( entrysize+aesoutsize+aesoutsize )} := mask;

//longmaskbob := 0{eval( entrysize+aesoutsize+aesoutsize  )};
//longmaskbob{0:eval(entrysize+aesoutsize+aesoutsize-1)} :=maskbob; 
 



out_alice := out_alice ^ longmaskalice;
//out_bob := out_bob ^ longmaskbob;

output.1 := out_alice;
//output.0 := out_bob;
output.2 := out_partial;







